…
Frequency table of amenities types in this municipality

``` r
freq1 = goal::osm.getFrequency(amenities, inword = "amenity", removeNA = F)
freq1
```

```
## # A tibble: 87 × 3
##    amenity              n  freq
##  * <chr>            <int> <dbl>
##  1 <NA>              3267 63.1 
##  2 bench              593 11.5 
##  3 shelter            182  3.52
##  4 place_of_worship   129  2.49
##  5 waste_basket       113  2.18
##  6 cafe               104  2.01
##  7 parking             90  1.74
##  8 toilets             77  1.49
##  9 restaurant          73  1.41
## 10 recycling           55  1.06
## # ℹ 77 more rows
```
…
Frequency table of shop types in this municipality

``` r
freq2 = goal::osm.getFrequency(shops, inword = "shop", removeNA = F)
freq2
```

```
## # A tibble: 94 × 3
##    shop            n  freq
##  * <chr>       <int> <dbl>
##  1 <NA>          499 41.5 
##  2 clothes        93  7.73
##  3 convenience    60  4.99
##  4 hairdresser    41  3.41
##  5 bakery         26  2.16
##  6 jewelry        26  2.16
##  7 supermarket    25  2.08
##  8 kiosk          23  1.91
##  9 butcher        21  1.75
## 10 shoes          21  1.75
## # ℹ 84 more rows
```
…
``` r
myr1
```

```
## # A sfnetwork with 2543 nodes and 1821 edges
## #
## # CRS:  EPSG:2100 
## #
## # An undirected multigraph with 770 components with spatially explicit edges
## #
## # A tibble: 2,543 × 1
##             geometry
##          <POINT [m]>
## 1 (720570.8 4331266)
## 2 (719927.1 4331309)
## 3 (721299.6 4331289)
## 4 (721287.5 4331404)
## 5 (721242.4 4331241)
## 6 (721069.4 4331400)
## # ℹ 2,537 more rows
## #
## # A tibble: 1,821 × 6
##    from    to osm_id   name             highway                         geometry
##   <int> <int> <chr>    <chr>            <chr>                   <LINESTRING [m]>
## 1     1     2 39428970 Ζωοδόχου Πηγής   primary (720570.8 4331266, 720530.6 433…
## 2     3     4 40847716 8ης Νοεμβρίου    primary (721299.6 4331289, 721295.2 433…
## 3     3     5 40847725 Αργύρη Εφταλιώτη primary (721242.4 4331241, 721299.6 433…
## # ℹ 1,818 more rows
```
…
``` r
myr2
```

```
## # A sfnetwork with 1006 nodes and 742 edges
## #
## # CRS:  EPSG:2100 
## #
## # An undirected multigraph with 281 components with spatially explicit edges
## #
## # A tibble: 1,006 × 1
##             geometry
##          <POINT [m]>
## 1 (720570.8 4331266)
## 2 (719927.1 4331309)
## 3 (721299.6 4331289)
## 4 (721287.5 4331404)
## 5 (721242.4 4331241)
## 6 (721069.4 4331400)
## # ℹ 1,000 more rows
## #
## # A tibble: 742 × 6
##    from    to osm_id   name             highway                         geometry
##   <int> <int> <chr>    <chr>            <chr>                   <LINESTRING [m]>
## 1     1     2 39428970 Ζωοδόχου Πηγής   primary (720570.8 4331266, 720530.6 433…
## 2     3     4 40847716 8ης Νοεμβρίου    primary (721299.6 4331289, 721295.2 433…
## 3     3     5 40847725 Αργύρη Εφταλιώτη primary (721242.4 4331241, 721299.6 433…
## # ℹ 739 more rows
```
…
