OpenStreetMap • goal
…
Frequency table of amenities types in this municipality

freq1 = osm.getFrequency(amenities, inword = "amenity", removeNA = F)
freq1

## # A tibble: 80 × 3
##    amenity              n   freq
##  * <chr>            <int>  <dbl>
##  1 NA                2807 63.6  
##  2 bench              486 11.0  
##  3 shelter            158  3.58 
##  4 place_of_worship   126  2.86 
##  5 cafe                90  2.04 
##  6 toilets             75  1.70 
##  7 waste_basket        74  1.68 
##  8 restaurant          68  1.54 
##  9 parking             64  1.45 
## 10 pharmacy            42  0.952
## # … with 70 more rows
…
Frequency table of shop types in this municipality

freq2 = osm.getFrequency(shops, inword = "shop", removeNA = F)
freq2

## # A tibble: 85 × 3
##    shop            n  freq
##  * <chr>       <int> <dbl>
##  1 NA            438 39.7 
##  2 clothes        92  8.33
##  3 convenience    59  5.34
##  4 hairdresser    38  3.44
##  5 bakery         27  2.45
##  6 jewelry        27  2.45
##  7 supermarket    25  2.26
##  8 kiosk          23  2.08
##  9 shoes          22  1.99
## 10 butcher        21  1.90
## # … with 75 more rows
…
