osm.getClipedRoads — osm.getRoads • goal
…
mynetwork = osm.getRoads(incoordinates= c(26.545029,39.088569,26.570177,39.116810), 
  withBB=TRUE, outcrs=2100
)
#> 
#> Using bbox
#> Warning: st_crs<- : replacing crs does not reproject data; use st_transform for that
#> Warning: st_crs<- : replacing crs does not reproject data; use st_transform for that
mynetwork 
#> # A sfnetwork with 1012 nodes and 744 edges
#> #
#> # CRS:  EPSG:2100 
#> #
#> # An undirected multigraph with 285 components with spatially explicit edges
#> #
#> # A tibble: 1,012 × 1
#>             geometry
#>          <POINT [m]>
#> 1 (720570.8 4331266)
#> 2 (719927.1 4331309)
#> 3 (721299.6 4331289)
#> 4 (721287.5 4331404)
#> 5 (721245.2 4331235)
#> 6 (721069.4 4331400)
#> # … with 1,006 more rows
#> #
#> # A tibble: 744 × 6
#>    from    to osm_id   name           highway                           geometry
#>   <int> <int> <chr>    <chr>          <chr>                     <LINESTRING [m]>
#> 1     1     2 39428970 Ζωοδόχου Πηγής primary (720570.8 4331266, 720530.6 43312…
#> 2     3     4 40847716 8ης Νοεμβρίου  primary (721299.6 4331289, 721295.2 43313…
#> 3     3     5 40847725 NA             primary (721245.2 4331235, 721248.1 43312…
#> # … with 741 more rows
mynetwork2 = osm.getRoads(inPerioxi="Mytilene Municipal Unit", 
  withBB=FALSE, outcrs=2100
)
#> 
#> Using name of area
#> Warning: st_crs<- : replacing crs does not reproject data; use st_transform for that
#> Warning: st_crs<- : replacing crs does not reproject data; use st_transform for that
mynetwork2 
#> # A sfnetwork with 2519 nodes and 1784 edges
#> #
#> # CRS:  EPSG:2100 
#> #
#> # An undirected multigraph with 772 components with spatially explicit edges
#> #
#> # A tibble: 2,519 × 1
#>             geometry
#>          <POINT [m]>
#> 1 (720570.8 4331266)
#> 2 (719927.1 4331309)
#> 3 (721299.6 4331289)
#> 4 (721287.5 4331404)
#> 5 (721245.2 4331235)
#> 6 (721069.4 4331400)
#> # … with 2,513 more rows
#> #
#> # A tibble: 1,784 × 6
#>    from    to osm_id   name           highway                           geometry
#>   <int> <int> <chr>    <chr>          <chr>                     <LINESTRING [m]>
#> 1     1     2 39428970 Ζωοδόχου Πηγής primary (720570.8 4331266, 720530.6 43312…
#> 2     3     4 40847716 8ης Νοεμβρίου  primary (721299.6 4331289, 721295.2 43313…
#> 3     3     5 40847725 NA             primary (721245.2 4331235, 721248.1 43312…
#> # … with 1,781 more rows
…
